Имя;Email;Телефон;Продукт;Дата регистрации;Статус
Nick1;test.email1@gmail.com;0963305196;Долина;2017-10-18 20:45:17;не оплачен
Nick1;test.email1@gmail.com;0963305196;Долина;2017-10-18 21:03:50;не оплачен
Nick2;test.email1@gmail.com;0963305196;Долина;2017-10-18 21:04:38;оплачен
Nick3;test.email1@gmail.com;0963305196;Армия;2017-10-18 21:34:04;не оплачен
Nick3;test.email1@gmail.com;0963305196;Армия;2017-10-18 21:36:31;оплачен
