ID Пользователя;Имя;Фамилия;Отчество;Email;Телефон;Выручка;Количество продаж;Сумма комиссий;Комиссия;Дата
6;11;11;11;11@test.com;11;4000.00;3;400.00;100.00;2017-10-14 11:03:17
6;11;11;11;11@test.com;11;4000.00;3;400.00;200.00;2017-10-18 21:04:38
6;11;11;11;11@test.com;11;4000.00;3;400.00;100.00;2017-10-18 21:36:31
